{"status":"success",
  "code":200,
  "data":
  {
    "current_page":1,
    "data":[
      {
        "id":302,
        "cart_id":304,
        "cart":
        {
          "id":304,
          "carNumber":"LFV3B2FY0K3613391",
          "carType":"Q5L\u56fd\u4ea7 2.0T\/40TFSI\u8363\u4eab\u65f6\u5c1a\u578b\u4e2a\u6027\u5316",
          "deposit":2000,
          "cart_boutique":[],
          "cost":
          {
            "id":302,
            "merchant_id":72,
            "cart_id":304,
            "net_price":"0.00",
            "registration_price":"0.00",
            "insurance_price":"0.00",
            "purchase_tax":"0.00",
            "financial_agents_price":"0.00",
            "other_price":"0.00",
            "registration_type":"",
            "insurance_type":"",
            "net_price_description":"",
            "registration_price_description":"",
            "insurance_price_description":"",
            "purchase_tax_description":"",
            "financial_agents_price_description":"",
            "other_price_description":"",
            "cart_price_type":1,
            "offer_price":"0.00",
            "vin":"",
            "content_remark":"",
            "created_at":"2020-07-19 18:53:43",
            "updated_at":"2020-07-19 18:53:43"
          }
        }
      },
      {"id":301,"cart_id":303,"cart":{"id":303,"carNumber":"LFV3B2FY1K3609298","carType":"Q5L\u56fd\u4ea7 2.0T\/40TFSI\u8363\u4eab\u65f6\u5c1a\u578b","deposit":2000,"cart_boutique":[],"cost":{"id":301,"merchant_id":72,"cart_id":303,"net_price":"0.00","registration_price":"52558.00","insurance_price":"0.00","purchase_tax":"0.00","financial_agents_price":"0.00","other_price":"0.00","registration_type":"","insurance_type":"","net_price_description":"","registration_price_description":"","insurance_price_description":"","purchase_tax_description":"","financial_agents_price_description":"","other_price_description":"","cart_price_type":1,"offer_price":"0.00","vin":"","content_remark":"","created_at":"2020-07-19 18:51:05","updated_at":"2020-07-19 18:51:05"}}},
      {"id":300,"cart_id":302,"cart":{"id":302,"carNumber":"LFV3B2FY2K3607673","carType":"Q5L\u56fd\u4ea7 2.0T\/40TFSI\u8363\u4eab\u65f6\u5c1a\u578b","deposit":2000,"cart_boutique":[],"cost":{"id":300,"merchant_id":72,"cart_id":302,"net_price":"0.00","registration_price":"52558.00","insurance_price":"0.00","purchase_tax":"0.00","financial_agents_price":"0.00","other_price":"0.00","registration_type":"","insurance_type":"","net_price_description":"","registration_price_description":"","insurance_price_description":"","purchase_tax_description":"","financial_agents_price_description":"","other_price_description":"","cart_price_type":1,"offer_price":"0.00","vin":"","content_remark":"","created_at":"2020-07-19 18:51:05","updated_at":"2020-07-19 18:51:05"}}},
      {"id":299,"cart_id":301,"cart":{"id":301,"carNumber":"LFV3A28W5K3839344","carType":"A4L 2.0T\/40TFSI\u8fdb\u53d6\u578b","deposit":2000,"cart_boutique":[],"cost":{"id":299,"merchant_id":72,"cart_id":301,"net_price":"0.00","registration_price":"650.00","insurance_price":"0.00","purchase_tax":"0.00","financial_agents_price":"0.00","other_price":"0.00","registration_type":"","insurance_type":"","net_price_description":"","registration_price_description":"","insurance_price_description":"","purchase_tax_description":"","financial_agents_price_description":"","other_price_description":"","cart_price_type":2,"offer_price":"0.00","vin":"LFV3A28W5K3839344","content_remark":"","created_at":"2020-07-19 18:19:46","updated_at":"2020-07-19 18:19:46"}}},
      {"id":298,"cart_id":300,"cart":{"id":300,"carNumber":"LFV3A28W8K3835725","carType":"A4L 2.0T\/40TFSI\u8fdb\u53d6\u578b","deposit":2000,"cart_boutique":[],"cost":{"id":298,"merchant_id":72,"cart_id":300,"net_price":"0.00","registration_price":"888.00","insurance_price":"77.00","purchase_tax":"77.00","financial_agents_price":"77.00","other_price":"77.00","registration_type":"","insurance_type":"","net_price_description":"","registration_price_description":"","insurance_price_description":"","purchase_tax_description":"","financial_agents_price_description":"","other_price_description":"","cart_price_type":1,"offer_price":"0.00","vin":"","content_remark":"","created_at":"2020-07-19 18:07:05","updated_at":"2020-07-19 18:07:05"}}},
      {"id":297,"cart_id":297,"cart":null},
      {"id":296,"cart_id":296,"cart":null},{"id":295,"cart_id":294,"cart":{"id":294,"carNumber":"LFV3A28WWWWWWW","carType":"A4L 2.0T\/40TFSI\u8fdb\u53d6\u578b\u4e2a\u6027\u5316","deposit":2000,"cart_boutique":[],"cost":{"id":295,"merchant_id":72,"cart_id":294,"net_price":"0.00","registration_price":"0.00","insurance_price":"0.00","purchase_tax":"0.00","financial_agents_price":"0.00","other_price":"0.00","registration_type":"","insurance_type":"","net_price_description":"","registration_price_description":"","insurance_price_description":"","purchase_tax_description":"","financial_agents_price_description":"","other_price_description":"","cart_price_type":1,"offer_price":"0.00","vin":"","content_remark":"","created_at":"2020-07-19 14:26:17","updated_at":"2020-07-19 14:26:17"}}},
      {"id":294,"cart_id":293,"cart":{"id":293,"carNumber":"LFV3A28W2PPPPOO3444O","carType":"A4L 2.0T\/40TFSI\u8fdb\u53d6\u578b\u4e2a\u6027\u5316","deposit":2000,"cart_boutique":[],"cost":{"id":294,"merchant_id":72,"cart_id":293,"net_price":"0.00","registration_price":"0.00","insurance_price":"0.00","purchase_tax":"0.00","financial_agents_price":"0.00","other_price":"0.00","registration_type":"","insurance_type":"","net_price_description":"","registration_price_description":"","insurance_price_description":"","purchase_tax_description":"","financial_agents_price_description":"","other_price_description":"","cart_price_type":1,"offer_price":"0.00","vin":"","content_remark":"","created_at":"2020-07-19 14:22:55","updated_at":"2020-07-19 14:22:55"}}},
      {"id":293,"cart_id":292,"cart":{"id":292,"carNumber":"LFV3A28W2PPPPOOO","carType":"A4L 2.0T\/40TFSI\u8fdb\u53d6\u578b\u4e2a\u6027\u5316","deposit":2000,"cart_boutique":[],"cost":{"id":293,"merchant_id":72,"cart_id":292,"net_price":"0.00","registration_price":"0.00","insurance_price":"0.00","purchase_tax":"0.00","financial_agents_price":"0.00","other_price":"0.00","registration_type":"","insurance_type":"","net_price_description":"","registration_price_description":"","insurance_price_description":"","purchase_tax_description":"","financial_agents_price_description":"","other_price_description":"","cart_price_type":1,"offer_price":"0.00","vin":"","content_remark":"","created_at":"2020-07-19 14:19:42","updated_at":"2020-07-19 14:19:42"}}},
      {"id":292,"cart_id":291,"cart":{"id":291,"carNumber":"LFV3A28W2PPPP","carType":"A4L 2.0T\/40TFSI\u8fdb\u53d6\u578b\u4e2a\u6027\u5316","deposit":2000,"cart_boutique":[],"cost":{"id":292,"merchant_id":72,"cart_id":291,"net_price":"0.00","registration_price":"0.00","insurance_price":"0.00","purchase_tax":"0.00","financial_agents_price":"0.00","other_price":"0.00","registration_type":"","insurance_type":"","net_price_description":"","registration_price_description":"","insurance_price_description":"","purchase_tax_description":"","financial_agents_price_description":"","other_price_description":"","cart_price_type":1,"offer_price":"0.00","vin":"","content_remark":"","created_at":"2020-07-19 14:10:56","updated_at":"2020-07-19 14:10:56"}}},
      {"id":291,"cart_id":290,"cart":{"id":290,"carNumber":"LFV3A28W2QQQQQ","carType":"A4L 2.0T\/40TFSI\u8fdb\u53d6\u578b\u4e2a\u6027\u5316","deposit":2000,"cart_boutique":[],"cost":{"id":291,"merchant_id":72,"cart_id":290,"net_price":"0.00","registration_price":"0.00","insurance_price":"0.00","purchase_tax":"0.00","financial_agents_price":"0.00","other_price":"0.00","registration_type":"","insurance_type":"","net_price_description":"","registration_price_description":"","insurance_price_description":"","purchase_tax_description":"","financial_agents_price_description":"","other_price_description":"","cart_price_type":1,"offer_price":"0.00","vin":"","content_remark":"","created_at":"2020-07-19 14:06:04","updated_at":"2020-07-19 14:06:04"}}},
      {"id":290,"cart_id":289,"cart":{"id":289,"carNumber":"LFV3A28W2eeee","carType":"A4L 2.0T\/40TFSI\u8fdb\u53d6\u578b\u4e2a\u6027\u5316","deposit":2000,"cart_boutique":[],"cost":{"id":290,"merchant_id":72,"cart_id":289,"net_price":"0.00","registration_price":"0.00","insurance_price":"0.00","purchase_tax":"0.00","financial_agents_price":"0.00","other_price":"0.00","registration_type":"","insurance_type":"","net_price_description":"","registration_price_description":"","insurance_price_description":"","purchase_tax_description":"","financial_agents_price_description":"","other_price_description":"","cart_price_type":1,"offer_price":"0.00","vin":"","content_remark":"","created_at":"2020-07-19 14:03:50","updated_at":"2020-07-19 14:03:50"}}},
      {"id":289,"cart_id":288,"cart":{"id":288,"carNumber":"LFV3A28W2ffff","carType":"A4L 2.0T\/40TFSI\u8fdb\u53d6\u578b\u4e2a\u6027\u5316","deposit":2000,"cart_boutique":[],"cost":{"id":289,"merchant_id":72,"cart_id":288,"net_price":"0.00","registration_price":"0.00","insurance_price":"0.00","purchase_tax":"0.00","financial_agents_price":"0.00","other_price":"0.00","registration_type":"","insurance_type":"","net_price_description":"","registration_price_description":"","insurance_price_description":"","purchase_tax_description":"","financial_agents_price_description":"","other_price_description":"","cart_price_type":1,"offer_price":"0.00","vin":"","content_remark":"","created_at":"2020-07-19 14:00:25","updated_at":"2020-07-19 14:00:25"}}},
      {"id":288,"cart_id":287,"cart":{"id":287,"carNumber":"LFV3A28W29999","carType":"A4L 2.0T\/40TFSI\u8fdb\u53d6\u578b\u4e2a\u6027\u5316","deposit":2000,"cart_boutique":[],"cost":{"id":288,"merchant_id":72,"cart_id":287,"net_price":"0.00","registration_price":"0.00","insurance_price":"0.00","purchase_tax":"0.00","financial_agents_price":"0.00","other_price":"0.00","registration_type":"","insurance_type":"","net_price_description":"","registration_price_description":"","insurance_price_description":"","purchase_tax_description":"","financial_agents_price_description":"","other_price_description":"","cart_price_type":1,"offer_price":"0.00","vin":"","content_remark":"","created_at":"2020-07-19 13:57:24","updated_at":"2020-07-19 13:57:24"}}},
      {"id":287,"cart_id":286,"cart":{"id":286,"carNumber":"LFV3A28W278888","carType":"A4L 2.0T\/40TFSI\u8fdb\u53d6\u578b\u4e2a\u6027\u5316","deposit":2000,"cart_boutique":[],"cost":{"id":287,"merchant_id":72,"cart_id":286,"net_price":"0.00","registration_price":"0.00","insurance_price":"0.00","purchase_tax":"0.00","financial_agents_price":"0.00","other_price":"0.00","registration_type":"","insurance_type":"","net_price_description":"","registration_price_description":"","insurance_price_description":"","purchase_tax_description":"","financial_agents_price_description":"","other_price_description":"","cart_price_type":1,"offer_price":"0.00","vin":"","content_remark":"","created_at":"2020-07-19 13:53:57","updated_at":"2020-07-19 13:53:57"}}},
      {"id":286,"cart_id":285,"cart":{"id":285,"carNumber":"LFV3A28W277777","carType":"A4L 2.0T\/40TFSI\u8fdb\u53d6\u578b\u4e2a\u6027\u5316","deposit":2000,"cart_boutique":[],"cost":{"id":286,"merchant_id":72,"cart_id":285,"net_price":"0.00","registration_price":"0.00","insurance_price":"0.00","purchase_tax":"0.00","financial_agents_price":"0.00","other_price":"0.00","registration_type":"","insurance_type":"","net_price_description":"","registration_price_description":"","insurance_price_description":"","purchase_tax_description":"","financial_agents_price_description":"","other_price_description":"","cart_price_type":1,"offer_price":"0.00","vin":"","content_remark":"","created_at":"2020-07-19 13:49:52","updated_at":"2020-07-19 13:49:52"}}},
      {"id":285,"cart_id":284,"cart":{"id":284,"carNumber":"LFV3A28W2K3850119","carType":"A4L 2.0T\/40TFS\u8fd0\u52a8\u578b","deposit":2000,"cart_boutique":[],"cost":{"id":285,"merchant_id":72,"cart_id":284,"net_price":"0.00","registration_price":"0.00","insurance_price":"0.00","purchase_tax":"0.00","financial_agents_price":"0.00","other_price":"0.00","registration_type":"","insurance_type":"","net_price_description":"","registration_price_description":"","insurance_price_description":"","purchase_tax_description":"","financial_agents_price_description":"","other_price_description":"","cart_price_type":1,"offer_price":"0.00","vin":"","content_remark":"","created_at":"2020-07-19 13:49:47","updated_at":"2020-07-19 13:49:47"}}},
      {"id":284,"cart_id":283,"cart":{"id":283,"carNumber":"LFV3A28W26666","carType":"A4L 2.0T\/40TFSI\u8fdb\u53d6\u578b\u4e2a\u6027\u5316","deposit":2000,"cart_boutique":[],"cost":{"id":284,"merchant_id":72,"cart_id":283,"net_price":"0.00","registration_price":"0.00","insurance_price":"0.00","purchase_tax":"0.00","financial_agents_price":"0.00","other_price":"0.00","registration_type":"","insurance_type":"","net_price_description":"","registration_price_description":"","insurance_price_description":"","purchase_tax_description":"","financial_agents_price_description":"","other_price_description":"","cart_price_type":1,"offer_price":"0.00","vin":"","content_remark":"","created_at":"2020-07-19 13:45:10","updated_at":"2020-07-19 13:45:10"}}},
      {"id":283,"cart_id":282,"cart":{"id":282,"carNumber":"LFV3A28W2K3850109","carType":"A4L 2.0T\/41TFSI\u65f6\u5c1a\u578b","deposit":2000,"cart_boutique":[],"cost":{"id":283,"merchant_id":72,"cart_id":282,"net_price":"0.00","registration_price":"0.00","insurance_price":"0.00","purchase_tax":"0.00","financial_agents_price":"0.00","other_price":"0.00","registration_type":"","insurance_type":"","net_price_description":"","registration_price_description":"","insurance_price_description":"","purchase_tax_description":"","financial_agents_price_description":"","other_price_description":"","cart_price_type":1,"offer_price":"0.00","vin":"","content_remark":"","created_at":"2020-07-19 13:45:02","updated_at":"2020-07-19 13:45:02"}}}
    ],
    "first_page_url":"http:\/\/test.cheyuw.cn\/api\/merchant\/auth\/datail?page=1",
    "from":1,
    "last_page":16,
    "last_page_url":"http:\/\/test.cheyuw.cn\/api\/merchant\/auth\/datail?page=16",
    "next_page_url":"http:\/\/test.cheyuw.cn\/api\/merchant\/auth\/datail?page=2",
    "path":"http:\/\/test.cheyuw.cn\/api\/merchant\/auth\/datail",
    "per_page":20,
    "prev_page_url":null,
    "to":20,
    "total":302
  }
}