{
  "status":"success",
  "code":200,
  "data":
         {"current_page":1,
           "data":
                 [
                   {"id":188,
                     "cart_id":187,
                     "cart":{"id":187,
                       "carNumber":"LFV3B2FY5K3627187",
                       "deposit":2000,
                       "cart_boutique":[],
                       "cost":
                       {
                         "id":188,
                         "merchant_id":47,
                         "cart_id":187,
                         "net_price":"0.00",
                         "registration_price":"0.00",
                         "insurance_price":"0.00",
                         "purchase_tax":"0.00",
                         "financial_agents_price":"0.00",
                         "other_price":"0.00",
                         "registration_type":"",
                         "insurance_type":"",
                         "net_price_description":"",
                         "registration_price_description":"",
                         "insurance_price_description":"",
                         "purchase_tax_description":"",
                         "financial_agents_price_description":"",
                         "other_price_description":"",
                         "cart_price_type":1,
                         "offer_price":"0.00",
                         "vin":"",
                         "content_remark":"",
                         "created_at":"2020-07-09 22:44:24",
                         "updated_at":"2020-07-09 22:44:24"
                       }
                     }
                   },
                   {"id":187,"cart_id":186,"cart":{"id":186,"carNumber":"LFV3B2FY2K3623503","deposit":2000,"cart_boutique":[],"cost":{"id":187,"merchant_id":47,"cart_id":186,"net_price":"0.00","registration_price":"0.00","insurance_price":"0.00","purchase_tax":"0.00","financial_agents_price":"0.00","other_price":"0.00","registration_type":"","insurance_type":"","net_price_description":"","registration_price_description":"","insurance_price_description":"","purchase_tax_description":"","financial_agents_price_description":"","other_price_description":"","cart_price_type":1,"offer_price":"0.00","vin":"","content_remark":"","created_at":"2020-07-09 22:44:24","updated_at":"2020-07-09 22:44:24"}}},{"id":186,"cart_id":185,"cart":{"id":185,"carNumber":"LFV3B2FY3K3621629","deposit":2000,"cart_boutique":[],"cost":{"id":186,"merchant_id":47,"cart_id":185,"net_price":"0.00","registration_price":"0.00","insurance_price":"0.00","purchase_tax":"0.00","financial_agents_price":"0.00","other_price":"0.00","registration_type":"","insurance_type":"","net_price_description":"","registration_price_description":"","insurance_price_description":"","purchase_tax_description":"","financial_agents_price_description":"","other_price_description":"","cart_price_type":1,"offer_price":"0.00","vin":"","content_remark":"","created_at":"2020-07-09 22:44:24","updated_at":"2020-07-09 22:44:24"}}},{"id":185,"cart_id":184,"cart":{"id":184,"carNumber":"LFV3B2FY0K3624861","deposit":2000,"cart_boutique":[],"cost":{"id":185,"merchant_id":47,"cart_id":184,"net_price":"0.00","registration_price":"0.00","insurance_price":"0.00","purchase_tax":"0.00","financial_agents_price":"0.00","other_price":"0.00","registration_type":"","insurance_type":"","net_price_description":"","registration_price_description":"","insurance_price_description":"","purchase_tax_description":"","financial_agents_price_description":"","other_price_description":"","cart_price_type":1,"offer_price":"0.00","vin":"","content_remark":"","created_at":"2020-07-09 22:44:24","updated_at":"2020-07-09 22:44:24"}}},{"id":184,"cart_id":183,"cart":{"id":183,"carNumber":"LFV3B2FY4K3624880","deposit":2000,"cart_boutique":[],"cost":{"id":184,"merchant_id":47,"cart_id":183,"net_price":"0.00","registration_price":"0.00","insurance_price":"0.00","purchase_tax":"0.00","financial_agents_price":"0.00","other_price":"0.00","registration_type":"","insurance_type":"","net_price_description":"","registration_price_description":"","insurance_price_description":"","purchase_tax_description":"","financial_agents_price_description":"","other_price_description":"","cart_price_type":1,"offer_price":"0.00","vin":"","content_remark":"","created_at":"2020-07-09 22:44:24","updated_at":"2020-07-09 22:44:24"}}},{"id":183,"cart_id":182,"cart":{"id":182,"carNumber":"LFV3B2FYXK3625466","deposit":2000,"cart_boutique":[],"cost":{"id":183,"merchant_id":47,"cart_id":182,"net_price":"0.00","registration_price":"0.00","insurance_price":"0.00","purchase_tax":"0.00","financial_agents_price":"0.00","other_price":"0.00","registration_type":"","insurance_type":"","net_price_description":"","registration_price_description":"","insurance_price_description":"","purchase_tax_description":"","financial_agents_price_description":"","other_price_description":"","cart_price_type":1,"offer_price":"0.00","vin":"","content_remark":"","created_at":"2020-07-09 22:44:24","updated_at":"2020-07-09 22:44:24"}}},{"id":182,"cart_id":181,"cart":{"id":181,"carNumber":"LFV3B2FYXK3613561","deposit":2000,"cart_boutique":[],"cost":{"id":182,"merchant_id":47,"cart_id":181,"net_price":"0.00","registration_price":"0.00","insurance_price":"0.00","purchase_tax":"0.00","financial_agents_price":"0.00","other_price":"0.00","registration_type":"","insurance_type":"","net_price_description":"","registration_price_description":"","insurance_price_description":"","purchase_tax_description":"","financial_agents_price_description":"","other_price_description":"","cart_price_type":1,"offer_price":"0.00","vin":"","content_remark":"","created_at":"2020-07-09 22:44:24","updated_at":"2020-07-09 22:44:24"}}},{"id":181,"cart_id":180,"cart":{"id":180,"carNumber":"LFV3A28W4K3828447","deposit":2000,"cart_boutique":[],"cost":{"id":181,"merchant_id":47,"cart_id":180,"net_price":"0.00","registration_price":"0.00","insurance_price":"0.00","purchase_tax":"0.00","financial_agents_price":"0.00","other_price":"0.00","registration_type":"","insurance_type":"","net_price_description":"","registration_price_description":"","insurance_price_description":"","purchase_tax_description":"","financial_agents_price_description":"","other_price_description":"","cart_price_type":1,"offer_price":"0.00","vin":"","content_remark":"","created_at":"2020-07-09 22:40:33","updated_at":"2020-07-09 22:40:33"}}},{"id":180,"cart_id":179,"cart":{"id":179,"carNumber":"LFV3A28W6K3866889","deposit":2000,"cart_boutique":[],"cost":{"id":180,"merchant_id":47,"cart_id":179,"net_price":"0.00","registration_price":"0.00","insurance_price":"0.00","purchase_tax":"0.00","financial_agents_price":"0.00","other_price":"0.00","registration_type":"","insurance_type":"","net_price_description":"","registration_price_description":"","insurance_price_description":"","purchase_tax_description":"","financial_agents_price_description":"","other_price_description":"","cart_price_type":1,"offer_price":"0.00","vin":"","content_remark":"","created_at":"2020-07-09 22:35:31","updated_at":"2020-07-09 22:40:30"}}},{"id":179,"cart_id":178,"cart":{"id":178,"carNumber":"LFV3A28W6K3866777","deposit":2000,"cart_boutique":[],"cost":{"id":179,"merchant_id":47,"cart_id":178,"net_price":"0.00","registration_price":"0.00","insurance_price":"0.00","purchase_tax":"0.00","financial_agents_price":"0.00","other_price":"0.00","registration_type":"","insurance_type":"","net_price_description":"","registration_price_description":"","insurance_price_description":"","purchase_tax_description":"","financial_agents_price_description":"","other_price_description":"","cart_price_type":1,"offer_price":"0.00","vin":"","content_remark":"","created_at":"2020-07-09 22:35:31","updated_at":"2020-07-09 22:40:30"}}},{"id":178,"cart_id":177,"cart":{"id":177,"carNumber":"LFV3A28W8K3866358","deposit":2000,"cart_boutique":[],"cost":{"id":178,"merchant_id":47,"cart_id":177,"net_price":"0.00","registration_price":"0.00","insurance_price":"0.00","purchase_tax":"0.00","financial_agents_price":"0.00","other_price":"0.00","registration_type":"","insurance_type":"","net_price_description":"","registration_price_description":"","insurance_price_description":"","purchase_tax_description":"","financial_agents_price_description":"","other_price_description":"","cart_price_type":1,"offer_price":"0.00","vin":"","content_remark":"","created_at":"2020-07-09 22:35:31","updated_at":"2020-07-09 22:40:30"}}},{"id":177,"cart_id":176,"cart":{"id":176,"carNumber":"LFV3A28W3K3866297","deposit":2000,"cart_boutique":[],"cost":{"id":177,"merchant_id":47,"cart_id":176,"net_price":"0.00","registration_price":"0.00","insurance_price":"0.00","purchase_tax":"0.00","financial_agents_price":"0.00","other_price":"0.00","registration_type":"","insurance_type":"","net_price_description":"","registration_price_description":"","insurance_price_description":"","purchase_tax_description":"","financial_agents_price_description":"","other_price_description":"","cart_price_type":1,"offer_price":"0.00","vin":"","content_remark":"","created_at":"2020-07-09 22:35:31","updated_at":"2020-07-09 22:40:30"}}},{"id":176,"cart_id":175,"cart":{"id":175,"carNumber":"LFV3A28W6K3860459","deposit":2000,"cart_boutique":[],"cost":{"id":176,"merchant_id":47,"cart_id":175,"net_price":"0.00","registration_price":"0.00","insurance_price":"0.00","purchase_tax":"0.00","financial_agents_price":"0.00","other_price":"0.00","registration_type":"","insurance_type":"","net_price_description":"","registration_price_description":"","insurance_price_description":"","purchase_tax_description":"","financial_agents_price_description":"","other_price_description":"","cart_price_type":1,"offer_price":"0.00","vin":"","content_remark":"","created_at":"2020-07-09 22:35:31","updated_at":"2020-07-09 22:40:30"}}},{"id":175,"cart_id":174,"cart":{"id":174,"carNumber":"LFV3A28W8K3860589","deposit":2000,"cart_boutique":[],"cost":{"id":175,"merchant_id":47,"cart_id":174,"net_price":"0.00","registration_price":"0.00","insurance_price":"0.00","purchase_tax":"0.00","financial_agents_price":"0.00","other_price":"0.00","registration_type":"","insurance_type":"","net_price_description":"","registration_price_description":"","insurance_price_description":"","purchase_tax_description":"","financial_agents_price_description":"","other_price_description":"","cart_price_type":1,"offer_price":"0.00","vin":"","content_remark":"","created_at":"2020-07-09 22:35:31","updated_at":"2020-07-09 22:40:30"}}},{"id":174,"cart_id":173,"cart":{"id":173,"carNumber":"LFV3A28W2K3860572","deposit":2000,"cart_boutique":[],"cost":{"id":174,"merchant_id":47,"cart_id":173,"net_price":"0.00","registration_price":"0.00","insurance_price":"0.00","purchase_tax":"0.00","financial_agents_price":"0.00","other_price":"0.00","registration_type":"","insurance_type":"","net_price_description":"","registration_price_description":"","insurance_price_description":"","purchase_tax_description":"","financial_agents_price_description":"","other_price_description":"","cart_price_type":1,"offer_price":"0.00","vin":"","content_remark":"","created_at":"2020-07-09 22:35:31","updated_at":"2020-07-09 22:40:30"}}},{"id":173,"cart_id":172,"cart":{"id":172,"carNumber":"LFV3A28W0K3850400","deposit":2000,"cart_boutique":[],"cost":{"id":173,"merchant_id":47,"cart_id":172,"net_price":"0.00","registration_price":"0.00","insurance_price":"0.00","purchase_tax":"0.00","financial_agents_price":"0.00","other_price":"0.00","registration_type":"","insurance_type":"","net_price_description":"","registration_price_description":"","insurance_price_description":"","purchase_tax_description":"","financial_agents_price_description":"","other_price_description":"","cart_price_type":1,"offer_price":"0.00","vin":"","content_remark":"","created_at":"2020-07-09 22:35:31","updated_at":"2020-07-10 09:57:09"}}},{"id":172,"cart_id":171,"cart":{"id":171,"carNumber":"LFV3A28W4K3838220","deposit":2000,"cart_boutique":[],"cost":{"id":172,"merchant_id":47,"cart_id":171,"net_price":"0.00","registration_price":"0.00","insurance_price":"0.00","purchase_tax":"0.00","financial_agents_price":"0.00","other_price":"0.00","registration_type":"","insurance_type":"","net_price_description":"","registration_price_description":"","insurance_price_description":"","purchase_tax_description":"","financial_agents_price_description":"","other_price_description":"","cart_price_type":1,"offer_price":"0.00","vin":"","content_remark":"","created_at":"2020-07-09 22:35:31","updated_at":"2020-07-10 09:57:09"}}},{"id":171,"cart_id":170,"cart":{"id":170,"carNumber":"LFV3A28W2K3838197","deposit":2000,"cart_boutique":[],"cost":{"id":171,"merchant_id":47,"cart_id":170,"net_price":"0.00","registration_price":"0.00","insurance_price":"0.00","purchase_tax":"0.00","financial_agents_price":"0.00","other_price":"0.00","registration_type":"","insurance_type":"","net_price_description":"","registration_price_description":"","insurance_price_description":"","purchase_tax_description":"","financial_agents_price_description":"","other_price_description":"","cart_price_type":1,"offer_price":"0.00","vin":"","content_remark":"","created_at":"2020-07-09 22:35:31","updated_at":"2020-07-10 09:57:09"}}},{"id":170,"cart_id":169,"cart":{"id":169,"carNumber":"LFV3A28WXK3819896","deposit":2000,"cart_boutique":[],"cost":{"id":170,"merchant_id":47,"cart_id":169,"net_price":"0.00","registration_price":"0.00","insurance_price":"0.00","purchase_tax":"0.00","financial_agents_price":"0.00","other_price":"0.00","registration_type":"","insurance_type":"","net_price_description":"","registration_price_description":"","insurance_price_description":"","purchase_tax_description":"","financial_agents_price_description":"","other_price_description":"","cart_price_type":1,"offer_price":"0.00","vin":"","content_remark":"","created_at":"2020-07-09 22:32:31","updated_at":"2020-07-09 22:32:31"}}},{"id":169,"cart_id":168,"cart":{"id":168,"carNumber":"LFV3A24K3K3219482","deposit":2000,"cart_boutique":[],"cost":{"id":169,"merchant_id":47,"cart_id":168,"net_price":"0.00","registration_price":"0.00","insurance_price":"0.00","purchase_tax":"0.00","financial_agents_price":"0.00","other_price":"0.00","registration_type":"","insurance_type":"","net_price_description":"","registration_price_description":"","insurance_price_description":"","purchase_tax_description":"","financial_agents_price_description":"","other_price_description":"","cart_price_type":1,"offer_price":"0.00","vin":"","content_remark":"","created_at":"2020-07-09 22:07:02","updated_at":"2020-07-09 22:07:02"}}}],"first_page_url":"http:\/\/test.cheyuw.cn\/api\/merchant\/auth\/datail?page=1","from":1,"last_page":10,"last_page_url":"http:\/\/test.cheyuw.cn\/api\/merchant\/auth\/datail?page=10","next_page_url":"http:\/\/test.cheyuw.cn\/api\/merchant\/auth\/datail?page=2","path":"http:\/\/test.cheyuw.cn\/api\/merchant\/auth\/datail","per_page":20,"prev_page_url":null,"to":20,"total":188}}